<?xml version="1.0" encoding="UTF-8" standalone="no"?>
<svg
   xmlns:dc="http://purl.org/dc/elements/1.1/"
   xmlns:cc="http://creativecommons.org/ns#"
   xmlns:rdf="http://www.w3.org/1999/02/22-rdf-syntax-ns#"
   xmlns:svg="http://www.w3.org/2000/svg"
   xmlns="http://www.w3.org/2000/svg"
   xmlns:xlink="http://www.w3.org/1999/xlink"
   xmlns:sodipodi="http://sodipodi.sourceforge.net/DTD/sodipodi-0.dtd"
   xmlns:inkscape="http://www.inkscape.org/namespaces/inkscape"
   version="1.1"
   width="100%"
   height="100%"
   viewBox="128 64 511.99998 456.77376"
   id="svg2"
   inkscape:version="0.48.4 r9939"
   sodipodi:docname="diffraction-grating-rainbow.svg"
   inkscape:export-filename="/home/msm/Dropbox/opentextbooks/gefion-favrskov/git-overleaf/git-Bolger-FyB/grafik/bolger/diffraction-grating-rainbow.png"
   inkscape:export-xdpi="96.924942"
   inkscape:export-ydpi="96.924942">
  <metadata
     id="metadata97">
    <rdf:RDF>
      <cc:Work
         rdf:about="">
        <dc:format>image/svg+xml</dc:format>
        <dc:type
           rdf:resource="http://purl.org/dc/dcmitype/StillImage" />
        <dc:title>Comparison of spectra obtained by diffraction and refraction</dc:title>
      </cc:Work>
    </rdf:RDF>
  </metadata>
  <sodipodi:namedview
     pagecolor="#ffffff"
     bordercolor="#666666"
     borderopacity="1"
     objecttolerance="10"
     gridtolerance="10"
     guidetolerance="10"
     inkscape:pageopacity="0"
     inkscape:pageshadow="2"
     inkscape:window-width="1301"
     inkscape:window-height="744"
     id="namedview95"
     showgrid="false"
     fit-margin-top="0"
     fit-margin-left="0"
     fit-margin-right="0"
     fit-margin-bottom="0"
     inkscape:zoom="0.86915208"
     inkscape:cx="568.06801"
     inkscape:cy="217.57961"
     inkscape:window-x="65"
     inkscape:window-y="24"
     inkscape:window-maximized="1"
     inkscape:current-layer="svg2" />
  <title
     id="title4">Comparison of spectra obtained by diffraction and refraction</title>
  <desc
     id="desc6">Comparison of the spectra obtained from a diffraction grating by diffraction (1), and a prism by refraction (2), drawn by CMG Lee. Longer wavelengths (red) are diffracted more, but refracted less than shorter wavelengths (violet).</desc>
  <defs
     id="defs8">
    <linearGradient
       id="grad_grating"
       x1="0.69999999"
       y1="0"
       x2="0"
       y2="1">
      <stop
         offset="24%"
         stop-color="#6600ff"
         id="stop11" />
      <stop
         offset="37%"
         stop-color="#009900"
         id="stop13" />
      <stop
         offset="50%"
         stop-color="#ff0000"
         id="stop15" />
    </linearGradient>
    <linearGradient
       id="grad_prism"
       x1="0.69999999"
       y1="0"
       x2="0"
       y2="1">
      <stop
         offset="24%"
         stop-color="#ff0000"
         id="stop18" />
      <stop
         offset="37%"
         stop-color="#009900"
         id="stop20" />
      <stop
         offset="50%"
         stop-color="#6600ff"
         id="stop22" />
    </linearGradient>
    <linearGradient
       id="grad_prism1"
       x1="0.44999999"
       y1="0"
       x2="0"
       y2="1">
      <stop
         style="stop-color:#4a17ed;stop-opacity:1;"
         id="stop3943"
         stop-color="#003399"
         offset="0" />
      <stop
         offset="0.40771613"
         stop-color="#003399"
         id="stop3947"
         style="stop-color:#3700ff;stop-opacity:1;" />
      <stop
         style="stop-color:#8dda68;stop-opacity:1;"
         offset="0.65112048"
         stop-color="#003399"
         id="stop3941" />
      <stop
         id="stop4085"
         stop-color="#003399"
         offset="0.73834038"
         style="stop-color:#dadd4f;stop-opacity:1;" />
      <stop
         id="stop3949"
         stop-color="#003399"
         offset="0.82556021"
         style="stop-color:#f32719;stop-opacity:1;" />
      <stop
         id="stop3937"
         stop-color="#003399"
         offset="1"
         style="stop-color:#ff0000;stop-opacity:1;" />
    </linearGradient>
    <linearGradient
       id="grad_white"
       x1="0"
       y1="0"
       x2="0"
       y2="1">
      <stop
         offset="0%"
         stop-color="#ffffff"
         stop-opacity="0"
         id="stop32" />
      <stop
         offset="25%"
         stop-color="#ffffff"
         stop-opacity="1"
         id="stop34" />
      <stop
         offset="75%"
         stop-color="#ffffff"
         stop-opacity="1"
         id="stop36" />
      <stop
         offset="100%"
         stop-color="#ffffff"
         stop-opacity="0"
         id="stop38" />
    </linearGradient>
    <linearGradient
       id="grad_fade"
       x1="0"
       y1="0"
       x2="1"
       y2="0">
      <stop
         offset="0%"
         stop-color="#999999"
         stop-opacity="0"
         id="stop41" />
      <stop
         offset="100%"
         stop-color="#999999"
         stop-opacity="1"
         id="stop43" />
    </linearGradient>
    <path
       id="tick"
       d="M -440,0 H 4300"
       inkscape:connector-curvature="0" />
    <path
       id="peak_layer"
       d="M -450,900 0,0 450,900"
       inkscape:connector-curvature="0" />
    <g
       id="peak"
       style="stroke:#ffffff;stroke-linejoin:round;stroke-opacity:0.1">
      <use
         xlink:href="#peak_layer"
         id="use48"
         style="stroke-width:60"
         x="0"
         y="0"
         width="256"
         height="384" />
      <use
         xlink:href="#peak_layer"
         id="use50"
         style="stroke-width:40"
         x="0"
         y="0"
         width="256"
         height="384" />
      <use
         xlink:href="#peak_layer"
         id="use52"
         style="stroke-width:20"
         x="0"
         y="0"
         width="256"
         height="384" />
      <use
         xlink:href="#peak_layer"
         id="use54"
         style="stroke-width:10"
         x="0"
         y="0"
         width="256"
         height="384" />
      <use
         xlink:href="#peak_layer"
         id="use56"
         x="0"
         y="0"
         width="256"
         height="384" />
      <use
         xlink:href="#peak_layer"
         id="use58"
         style="fill:url(#grad)"
         x="0"
         y="0"
         width="256"
         height="384" />
    </g>
    <rect
       id="order0"
       x="0"
       y="-12"
       width="1"
       height="24"
       style="fill:url(#grad_white)" />
    <path
       id="order1"
       transform="translate(200,0)"
       d="M 312,100 0,-10 v 20 l 312,190"
       inkscape:connector-curvature="0" />
    <path
       id="grating"
       d="M 200,-49 V 49"
       inkscape:connector-curvature="0"
       style="stroke-width:10" />
    <linearGradient
       inkscape:collect="always"
       xlink:href="#grad_grating"
       id="linearGradient3095"
       x1="343.26065"
       y1="-12.188988"
       x2="164.08253"
       y2="243.77975"
       gradientTransform="scale(1.2188988,0.82041265)"
       gradientUnits="userSpaceOnUse" />
    <linearGradient
       inkscape:collect="always"
       xlink:href="#grad_grating"
       id="linearGradient3097"
       x1="343.26065"
       y1="-12.188988"
       x2="164.08253"
       y2="243.77975"
       gradientTransform="scale(1.2188988,0.82041265)"
       gradientUnits="userSpaceOnUse" />
    <linearGradient
       inkscape:collect="always"
       xlink:href="#grad_prism"
       id="linearGradient3099"
       x1="343.26065"
       y1="-12.188988"
       x2="164.08253"
       y2="243.77975"
       gradientTransform="scale(1.2188988,0.82041265)"
       gradientUnits="userSpaceOnUse" />
    <linearGradient
       inkscape:collect="always"
       xlink:href="#grad_fade"
       id="linearGradient3108"
       gradientUnits="userSpaceOnUse"
       gradientTransform="matrix(0.70710678,0,0,1.4142136,-24.835454,-64.083704)"
       x1="362.03867"
       y1="0"
       x2="724.07733"
       y2="0" />
    <linearGradient
       inkscape:collect="always"
       xlink:href="#grad_prism"
       id="linearGradient3122"
       gradientUnits="userSpaceOnUse"
       gradientTransform="scale(1.2188988,0.82041265)"
       x1="343.26065"
       y1="-12.188988"
       x2="164.08253"
       y2="243.77975" />
    <linearGradient
       inkscape:collect="always"
       xlink:href="#grad_grating"
       id="linearGradient3126"
       gradientUnits="userSpaceOnUse"
       gradientTransform="scale(1.2188988,0.82041265)"
       x1="343.26065"
       y1="-12.188988"
       x2="164.08253"
       y2="243.77975" />
    <linearGradient
       inkscape:collect="always"
       xlink:href="#grad_grating"
       id="linearGradient3128"
       gradientUnits="userSpaceOnUse"
       gradientTransform="scale(1.2188988,0.82041265)"
       x1="343.26065"
       y1="-12.188988"
       x2="164.08253"
       y2="243.77975" />
    <linearGradient
       inkscape:collect="always"
       xlink:href="#grad_prism1"
       id="linearGradient3131"
       gradientUnits="userSpaceOnUse"
       gradientTransform="matrix(1.246271,0,0,0.80239368,22.350988,248.72986)"
       x1="162.76556"
       y1="-12.46271"
       x2="136.40694"
       y2="46.112026" />
    <linearGradient
       inkscape:collect="always"
       xlink:href="#grad_grating"
       id="linearGradient3150"
       gradientUnits="userSpaceOnUse"
       gradientTransform="scale(1.2188988,0.82041265)"
       x1="343.26065"
       y1="-12.188988"
       x2="164.08253"
       y2="243.77975" />
    <linearGradient
       inkscape:collect="always"
       xlink:href="#grad_grating"
       id="linearGradient3152"
       gradientUnits="userSpaceOnUse"
       gradientTransform="scale(1.2188988,0.82041265)"
       x1="343.26065"
       y1="-12.188988"
       x2="164.08253"
       y2="243.77975" />
    <linearGradient
       inkscape:collect="always"
       xlink:href="#grad_fade"
       id="linearGradient3154"
       gradientUnits="userSpaceOnUse"
       gradientTransform="matrix(0.70710678,0,0,1.4142136,-24.835454,-64.083704)"
       x1="362.03867"
       y1="0"
       x2="724.07733"
       y2="0" />
    <linearGradient
       inkscape:collect="always"
       xlink:href="#grad_fade"
       id="linearGradient3157"
       gradientUnits="userSpaceOnUse"
       gradientTransform="matrix(1.3649458,0,0,1.2616713,-350.39812,63.999989)"
       x1="362.03867"
       y1="0"
       x2="724.07733"
       y2="0" />
    <linearGradient
       inkscape:collect="always"
       xlink:href="#grad_grating"
       id="linearGradient3165"
       gradientUnits="userSpaceOnUse"
       gradientTransform="scale(1.2188988,0.82041265)"
       x1="343.26065"
       y1="-12.188988"
       x2="164.08253"
       y2="243.77975" />
    <linearGradient
       inkscape:collect="always"
       xlink:href="#grad_prism1"
       id="linearGradient3167"
       gradientUnits="userSpaceOnUse"
       gradientTransform="scale(1.2188988,0.82041265)"
       x1="343.26065"
       y1="-12.188988"
       x2="164.08253"
       y2="243.77975" />
    <linearGradient
       inkscape:collect="always"
       xlink:href="#grad_prism1-3"
       id="linearGradient3167-6"
       gradientUnits="userSpaceOnUse"
       gradientTransform="scale(1.2188988,0.82041265)"
       x1="343.26065"
       y1="-12.188988"
       x2="164.08253"
       y2="243.77975" />
    <linearGradient
       id="grad_prism1-3"
       x1="0.44999999"
       y1="0"
       x2="0"
       y2="1">
      <stop
         style="stop-color:#4a17ed;stop-opacity:1;"
         id="stop3943-7"
         stop-color="#003399"
         offset="0" />
      <stop
         offset="0.40771613"
         stop-color="#003399"
         id="stop3947-4"
         style="stop-color:#3700ff;stop-opacity:1;" />
      <stop
         style="stop-color:#8dda68;stop-opacity:1;"
         offset="0.65112048"
         stop-color="#003399"
         id="stop3941-0" />
      <stop
         id="stop3949-9"
         stop-color="#003399"
         offset="0.82556021"
         style="stop-color:#f32719;stop-opacity:1;" />
      <stop
         id="stop3937-6"
         stop-color="#003399"
         offset="1"
         style="stop-color:#ff0000;stop-opacity:1;" />
    </linearGradient>
    <linearGradient
       inkscape:collect="always"
       xlink:href="#grad_prism1-3"
       id="linearGradient3968"
       gradientUnits="userSpaceOnUse"
       gradientTransform="scale(1.2188988,0.82041265)"
       x1="343.26065"
       y1="-12.188988"
       x2="164.08253"
       y2="243.77975" />
    <linearGradient
       id="linearGradient3970"
       x1="0.44999999"
       y1="0"
       x2="0"
       y2="1">
      <stop
         style="stop-color:#4a17ed;stop-opacity:1;"
         id="stop3972"
         stop-color="#003399"
         offset="0" />
      <stop
         offset="0.40771613"
         stop-color="#003399"
         id="stop3974"
         style="stop-color:#3700ff;stop-opacity:1;" />
      <stop
         style="stop-color:#8dda68;stop-opacity:1;"
         offset="0.65112048"
         stop-color="#003399"
         id="stop3976" />
      <stop
         id="stop3978"
         stop-color="#003399"
         offset="0.82556021"
         style="stop-color:#f32719;stop-opacity:1;" />
      <stop
         id="stop3980"
         stop-color="#003399"
         offset="1"
         style="stop-color:#ff0000;stop-opacity:1;" />
    </linearGradient>
    <linearGradient
       inkscape:collect="always"
       xlink:href="#grad_prism1-5"
       id="linearGradient3167-4"
       gradientUnits="userSpaceOnUse"
       gradientTransform="scale(1.2188988,0.82041265)"
       x1="343.26065"
       y1="-12.188988"
       x2="164.08253"
       y2="243.77975" />
    <linearGradient
       id="grad_prism1-5"
       x1="0.44999999"
       y1="0"
       x2="0"
       y2="1">
      <stop
         style="stop-color:#4a17ed;stop-opacity:1;"
         id="stop3943-1"
         stop-color="#003399"
         offset="0" />
      <stop
         offset="0.40771613"
         stop-color="#003399"
         id="stop3947-8"
         style="stop-color:#3700ff;stop-opacity:1;" />
      <stop
         style="stop-color:#8dda68;stop-opacity:1;"
         offset="0.65112048"
         stop-color="#003399"
         id="stop3941-2" />
      <stop
         id="stop3949-2"
         stop-color="#003399"
         offset="0.82556021"
         style="stop-color:#f32719;stop-opacity:1;" />
      <stop
         id="stop3937-4"
         stop-color="#003399"
         offset="1"
         style="stop-color:#ff0000;stop-opacity:1;" />
    </linearGradient>
    <linearGradient
       inkscape:collect="always"
       xlink:href="#grad_prism1-5"
       id="linearGradient4035"
       gradientUnits="userSpaceOnUse"
       gradientTransform="scale(1.2188988,0.82041265)"
       x1="343.26065"
       y1="-12.188988"
       x2="164.08253"
       y2="243.77975" />
    <linearGradient
       id="linearGradient4037"
       x1="0.44999999"
       y1="0"
       x2="0"
       y2="1">
      <stop
         style="stop-color:#4a17ed;stop-opacity:1;"
         id="stop4039"
         stop-color="#003399"
         offset="0" />
      <stop
         offset="0.40771613"
         stop-color="#003399"
         id="stop4041"
         style="stop-color:#3700ff;stop-opacity:1;" />
      <stop
         style="stop-color:#8dda68;stop-opacity:1;"
         offset="0.65112048"
         stop-color="#003399"
         id="stop4043" />
      <stop
         id="stop4045"
         stop-color="#003399"
         offset="0.82556021"
         style="stop-color:#f32719;stop-opacity:1;" />
      <stop
         id="stop4047"
         stop-color="#003399"
         offset="1"
         style="stop-color:#ff0000;stop-opacity:1;" />
    </linearGradient>
    <linearGradient
       inkscape:collect="always"
       xlink:href="#grad_prism1-7"
       id="linearGradient3167-0"
       gradientUnits="userSpaceOnUse"
       gradientTransform="scale(1.2188988,0.82041265)"
       x1="343.26065"
       y1="-12.188988"
       x2="164.08253"
       y2="243.77975" />
    <linearGradient
       id="grad_prism1-7"
       x1="0.44999999"
       y1="0"
       x2="0"
       y2="1">
      <stop
         style="stop-color:#4a17ed;stop-opacity:1;"
         id="stop3943-5"
         stop-color="#003399"
         offset="0" />
      <stop
         offset="0.40771613"
         stop-color="#003399"
         id="stop3947-7"
         style="stop-color:#3700ff;stop-opacity:1;" />
      <stop
         style="stop-color:#8dda68;stop-opacity:1;"
         offset="0.65112048"
         stop-color="#003399"
         id="stop3941-7" />
      <stop
         id="stop4085-1"
         stop-color="#003399"
         offset="0.73834038"
         style="stop-color:#dadd4f;stop-opacity:1;" />
      <stop
         id="stop3949-5"
         stop-color="#003399"
         offset="0.82556021"
         style="stop-color:#f32719;stop-opacity:1;" />
      <stop
         id="stop3937-8"
         stop-color="#003399"
         offset="1"
         style="stop-color:#ff0000;stop-opacity:1;" />
    </linearGradient>
    <linearGradient
       inkscape:collect="always"
       xlink:href="#grad_prism1-7"
       id="linearGradient4105"
       gradientUnits="userSpaceOnUse"
       gradientTransform="scale(1.2188988,0.82041265)"
       x1="343.26065"
       y1="-12.188988"
       x2="164.08253"
       y2="243.77975" />
    <linearGradient
       id="linearGradient4107"
       x1="0.44999999"
       y1="0"
       x2="0"
       y2="1">
      <stop
         style="stop-color:#4a17ed;stop-opacity:1;"
         id="stop4109"
         stop-color="#003399"
         offset="0" />
      <stop
         offset="0.40771613"
         stop-color="#003399"
         id="stop4111"
         style="stop-color:#3700ff;stop-opacity:1;" />
      <stop
         style="stop-color:#8dda68;stop-opacity:1;"
         offset="0.65112048"
         stop-color="#003399"
         id="stop4113" />
      <stop
         id="stop4115"
         stop-color="#003399"
         offset="0.73834038"
         style="stop-color:#dadd4f;stop-opacity:1;" />
      <stop
         id="stop4117"
         stop-color="#003399"
         offset="0.82556021"
         style="stop-color:#f32719;stop-opacity:1;" />
      <stop
         id="stop4119"
         stop-color="#003399"
         offset="1"
         style="stop-color:#ff0000;stop-opacity:1;" />
    </linearGradient>
  </defs>
  <use
     xlink:href="#grating"
     id="use75"
     style="font-size:64px;text-anchor:end;stroke:#66ccff;font-family:sans-serif"
     x="0"
     y="0"
     width="256"
     height="384"
     transform="translate(124,292.41675)" />
  <rect
     style="font-size:64px;text-anchor:end;fill:url(#linearGradient3157);font-family:sans-serif"
     id="rect89"
     height="456.77377"
     width="494.16318"
     y="63.999996"
     x="143.76508" />
  <use
     xlink:href="#order1"
     id="use69"
     style="font-size:64px;text-anchor:end;fill:url(#linearGradient3167);fill-opacity:1;fill-rule:nonzero;font-family:sans-serif"
     x="0"
     y="0"
     width="256"
     height="384"
     transform="translate(126,292.41675)" />
  <use
     xlink:href="#order1"
     id="use69-5"
     style="font-size:64px;text-anchor:end;fill:url(#linearGradient3167-0);fill-opacity:1;fill-rule:nonzero;font-family:sans-serif"
     x="0"
     y="0"
     width="256"
     height="384"
     transform="matrix(1,0,0,-1,126.03363,291.97858)" />
  <use
     style="font-size:64px;text-anchor:end;font-family:sans-serif"
     xlink:href="#order0"
     transform="matrix(512,0,0,1,128,292.41675)"
     id="use73"
     x="0"
     y="0"
     width="256"
     height="384" />
  <use
     xlink:href="#grating"
     id="use77"
     style="font-size:64px;text-anchor:end;stroke:#000000;stroke-dasharray:2, 2;font-family:sans-serif"
     x="0"
     y="0"
     width="256"
     height="384"
     transform="translate(124,292.41675)" />
</svg>
