<?xml version="1.0" encoding="UTF-8" standalone="no"?>
<!-- Created with Inkscape (http://www.inkscape.org/) -->

<svg
   xmlns:dc="http://purl.org/dc/elements/1.1/"
   xmlns:cc="http://creativecommons.org/ns#"
   xmlns:rdf="http://www.w3.org/1999/02/22-rdf-syntax-ns#"
   xmlns:svg="http://www.w3.org/2000/svg"
   xmlns="http://www.w3.org/2000/svg"
   xmlns:sodipodi="http://sodipodi.sourceforge.net/DTD/sodipodi-0.dtd"
   xmlns:inkscape="http://www.inkscape.org/namespaces/inkscape"
   width="940.03754"
   height="376.88718"
   id="svg2"
   version="1.1"
   inkscape:version="0.48.4 r9939"
   sodipodi:docname="gitterformel-arbejdsark-f1.svg"
   inkscape:export-filename="/home/msm/Dropbox/opentextbooks/gefion-favrskov/git-overleaf/git-Bolger-FyB/grafik/bolger/gitterligning-f1.png"
   inkscape:export-xdpi="96.924942"
   inkscape:export-ydpi="96.924942">
  <defs
     id="defs4" />
  <sodipodi:namedview
     id="base"
     pagecolor="#ffffff"
     bordercolor="#666666"
     borderopacity="1.0"
     inkscape:pageopacity="0.0"
     inkscape:pageshadow="2"
     inkscape:zoom="0.90594648"
     inkscape:cx="453.02438"
     inkscape:cy="92.897556"
     inkscape:document-units="px"
     inkscape:current-layer="layer1"
     showgrid="false"
     showguides="true"
     inkscape:guide-bbox="true"
     inkscape:window-width="1301"
     inkscape:window-height="744"
     inkscape:window-x="65"
     inkscape:window-y="24"
     inkscape:window-maximized="1"
     fit-margin-top="0"
     fit-margin-left="0"
     fit-margin-right="0"
     fit-margin-bottom="0" />
  <metadata
     id="metadata7">
    <rdf:RDF>
      <cc:Work
         rdf:about="">
        <dc:format>image/svg+xml</dc:format>
        <dc:type
           rdf:resource="http://purl.org/dc/dcmitype/StillImage" />
        <dc:title></dc:title>
      </cc:Work>
    </rdf:RDF>
  </metadata>
  <g
     inkscape:label="Layer 1"
     inkscape:groupmode="layer"
     id="layer1"
     transform="translate(-53.280638,-322.82816)">
    <path
       style="fill:none;stroke:#000000;stroke-width:1.95194542;stroke-linecap:butt;stroke-linejoin:miter;stroke-miterlimit:4;stroke-opacity:1;stroke-dasharray:none"
       d="m 84.330319,368.25106 0,227.17004"
       id="path2985"
       inkscape:connector-curvature="0" />
    <path
       style="fill:none;stroke:#000000;stroke-width:8.34448814;stroke-linecap:butt;stroke-linejoin:miter;stroke-miterlimit:4;stroke-opacity:1;stroke-dasharray:50.06692913, 16.68897638;stroke-dashoffset:0"
       d="m 205.71429,327.0004 0,326.43785"
       id="path2987"
       inkscape:connector-curvature="0" />
    <g
       id="g3799"
       transform="matrix(0.57251254,0,0,0.57251254,84.650863,-29.729202)">
      <path
         sodipodi:open="true"
         sodipodi:end="4.712389"
         sodipodi:start="1.5707963"
         transform="matrix(-1,0,0,1,559.70839,308.26766)"
         d="m 325.7143,579.80878 c -24.45833,1e-5 -44.28572,-19.82738 -44.28572,-44.28571 0,-24.45832 19.82739,-44.28571 44.28571,-44.28571 0,0 0,0 10e-6,0"
         sodipodi:ry="44.285713"
         sodipodi:rx="44.285713"
         sodipodi:cy="535.52307"
         sodipodi:cx="325.71429"
         id="path3761"
         style="fill:none;stroke:#000000;stroke-width:1.77165353;stroke-miterlimit:4;stroke-opacity:1;stroke-dasharray:none;stroke-dashoffset:0"
         sodipodi:type="arc" />
      <path
         sodipodi:open="true"
         sodipodi:end="4.712389"
         sodipodi:start="1.5707963"
         d="m 325.7143,579.80878 c -24.45833,1e-5 -44.28572,-19.82738 -44.28572,-44.28571 0,-24.45832 19.82739,-44.28571 44.28571,-44.28571 0,0 0,0 10e-6,0"
         sodipodi:ry="44.285713"
         sodipodi:rx="44.285713"
         sodipodi:cy="535.52307"
         sodipodi:cx="325.71429"
         id="path3761-1"
         style="fill:none;stroke:#000000;stroke-width:1.10310507;stroke-miterlimit:4;stroke-opacity:1;stroke-dasharray:none;stroke-dashoffset:0"
         sodipodi:type="arc"
         transform="matrix(-1.6060606,0,0,1.6060606,757.11099,-15.577442)" />
      <path
         sodipodi:open="true"
         sodipodi:end="4.712389"
         sodipodi:start="1.5707963"
         d="m 325.7143,579.80878 c -24.45833,1e-5 -44.28572,-19.82738 -44.28572,-44.28571 0,-24.45832 19.82739,-44.28571 44.28571,-44.28571 0,0 0,0 10e-6,0"
         sodipodi:ry="44.285713"
         sodipodi:rx="44.285713"
         sodipodi:cy="535.52307"
         sodipodi:cx="325.71429"
         id="path3761-1-7"
         style="fill:none;stroke:#000000;stroke-width:0.82466722;stroke-miterlimit:4;stroke-opacity:1;stroke-dasharray:none;stroke-dashoffset:0"
         sodipodi:type="arc"
         transform="matrix(-2.1483254,0,0,2.1483254,933.73439,-305.25843)" />
    </g>
    <g
       id="g3799-4"
       transform="matrix(0.57251254,0,0,0.57251254,84.158133,39.534912)">
      <path
         sodipodi:open="true"
         sodipodi:end="4.712389"
         sodipodi:start="1.5707963"
         transform="matrix(-1,0,0,1,559.70839,308.26766)"
         d="m 325.7143,579.80878 c -24.45833,1e-5 -44.28572,-19.82738 -44.28572,-44.28571 0,-24.45832 19.82739,-44.28571 44.28571,-44.28571 0,0 0,0 10e-6,0"
         sodipodi:ry="44.285713"
         sodipodi:rx="44.285713"
         sodipodi:cy="535.52307"
         sodipodi:cx="325.71429"
         id="path3761-6"
         style="fill:none;stroke:#000000;stroke-width:1.77165353;stroke-miterlimit:4;stroke-opacity:1;stroke-dasharray:none;stroke-dashoffset:0"
         sodipodi:type="arc" />
      <path
         sodipodi:open="true"
         sodipodi:end="4.712389"
         sodipodi:start="1.5707963"
         d="m 325.7143,579.80878 c -24.45833,1e-5 -44.28572,-19.82738 -44.28572,-44.28571 0,-24.45832 19.82739,-44.28571 44.28571,-44.28571 0,0 0,0 10e-6,0"
         sodipodi:ry="44.285713"
         sodipodi:rx="44.285713"
         sodipodi:cy="535.52307"
         sodipodi:cx="325.71429"
         id="path3761-1-9"
         style="fill:none;stroke:#000000;stroke-width:1.10310507;stroke-miterlimit:4;stroke-opacity:1;stroke-dasharray:none;stroke-dashoffset:0"
         sodipodi:type="arc"
         transform="matrix(-1.6060606,0,0,1.6060606,757.11099,-15.577442)" />
      <path
         sodipodi:open="true"
         sodipodi:end="4.712389"
         sodipodi:start="1.5707963"
         d="m 325.7143,579.80878 c -24.45833,1e-5 -44.28572,-19.82738 -44.28572,-44.28571 0,-24.45832 19.82739,-44.28571 44.28571,-44.28571 0,0 0,0 10e-6,0"
         sodipodi:ry="44.285713"
         sodipodi:rx="44.285713"
         sodipodi:cy="535.52307"
         sodipodi:cx="325.71429"
         id="path3761-1-7-5"
         style="fill:none;stroke:#000000;stroke-width:0.82466722;stroke-miterlimit:4;stroke-opacity:1;stroke-dasharray:none;stroke-dashoffset:0"
         sodipodi:type="arc"
         transform="matrix(-2.1483254,0,0,2.1483254,933.73439,-305.25843)" />
    </g>
    <g
       id="g3799-1"
       transform="matrix(0.57251254,0,0,0.57251254,83.762987,104.29839)">
      <path
         sodipodi:open="true"
         sodipodi:end="4.712389"
         sodipodi:start="1.5707963"
         transform="matrix(-1,0,0,1,559.70839,308.26766)"
         d="m 325.7143,579.80878 c -24.45833,1e-5 -44.28572,-19.82738 -44.28572,-44.28571 0,-24.45832 19.82739,-44.28571 44.28571,-44.28571 0,0 0,0 10e-6,0"
         sodipodi:ry="44.285713"
         sodipodi:rx="44.285713"
         sodipodi:cy="535.52307"
         sodipodi:cx="325.71429"
         id="path3761-5"
         style="fill:none;stroke:#000000;stroke-width:1.77165353;stroke-miterlimit:4;stroke-opacity:1;stroke-dasharray:none;stroke-dashoffset:0"
         sodipodi:type="arc" />
      <path
         sodipodi:open="true"
         sodipodi:end="4.712389"
         sodipodi:start="1.5707963"
         d="m 325.7143,579.80878 c -24.45833,1e-5 -44.28572,-19.82738 -44.28572,-44.28571 0,-24.45832 19.82739,-44.28571 44.28571,-44.28571 0,0 0,0 10e-6,0"
         sodipodi:ry="44.285713"
         sodipodi:rx="44.285713"
         sodipodi:cy="535.52307"
         sodipodi:cx="325.71429"
         id="path3761-1-3"
         style="fill:none;stroke:#000000;stroke-width:1.10310507;stroke-miterlimit:4;stroke-opacity:1;stroke-dasharray:none;stroke-dashoffset:0"
         sodipodi:type="arc"
         transform="matrix(-1.6060606,0,0,1.6060606,757.11099,-15.577442)" />
      <path
         sodipodi:open="true"
         sodipodi:end="4.712389"
         sodipodi:start="1.5707963"
         d="m 325.7143,579.80878 c -24.45833,1e-5 -44.28572,-19.82738 -44.28572,-44.28571 0,-24.45832 19.82739,-44.28571 44.28571,-44.28571 0,0 0,0 10e-6,0"
         sodipodi:ry="44.285713"
         sodipodi:rx="44.285713"
         sodipodi:cy="535.52307"
         sodipodi:cx="325.71429"
         id="path3761-1-7-2"
         style="fill:none;stroke:#000000;stroke-width:0.82466722;stroke-miterlimit:4;stroke-opacity:1;stroke-dasharray:none;stroke-dashoffset:0"
         sodipodi:type="arc"
         transform="matrix(-2.1483254,0,0,2.1483254,933.73439,-305.25843)" />
    </g>
    <g
       id="g3799-47"
       transform="matrix(0.57251254,0,0,0.57251254,85.278207,-98.2372)">
      <path
         sodipodi:open="true"
         sodipodi:end="4.712389"
         sodipodi:start="1.5707963"
         transform="matrix(-1,0,0,1,559.70839,308.26766)"
         d="m 325.7143,579.80878 c -24.45833,1e-5 -44.28572,-19.82738 -44.28572,-44.28571 0,-24.45832 19.82739,-44.28571 44.28571,-44.28571 0,0 0,0 10e-6,0"
         sodipodi:ry="44.285713"
         sodipodi:rx="44.285713"
         sodipodi:cy="535.52307"
         sodipodi:cx="325.71429"
         id="path3761-8"
         style="fill:none;stroke:#000000;stroke-width:1.77165353;stroke-miterlimit:4;stroke-opacity:1;stroke-dasharray:none;stroke-dashoffset:0"
         sodipodi:type="arc" />
      <path
         sodipodi:open="true"
         sodipodi:end="4.712389"
         sodipodi:start="1.5707963"
         d="m 325.7143,579.80878 c -24.45833,1e-5 -44.28572,-19.82738 -44.28572,-44.28571 0,-24.45832 19.82739,-44.28571 44.28571,-44.28571 0,0 0,0 10e-6,0"
         sodipodi:ry="44.285713"
         sodipodi:rx="44.285713"
         sodipodi:cy="535.52307"
         sodipodi:cx="325.71429"
         id="path3761-1-30"
         style="fill:none;stroke:#000000;stroke-width:1.10310507;stroke-miterlimit:4;stroke-opacity:1;stroke-dasharray:none;stroke-dashoffset:0"
         sodipodi:type="arc"
         transform="matrix(-1.6060606,0,0,1.6060606,757.11099,-15.577442)" />
      <path
         sodipodi:open="true"
         sodipodi:end="4.712389"
         sodipodi:start="1.5707963"
         d="m 325.7143,579.80878 c -24.45833,1e-5 -44.28572,-19.82738 -44.28572,-44.28571 0,-24.45832 19.82739,-44.28571 44.28571,-44.28571 0,0 0,0 10e-6,0"
         sodipodi:ry="44.285713"
         sodipodi:rx="44.285713"
         sodipodi:cy="535.52307"
         sodipodi:cx="325.71429"
         id="path3761-1-7-3"
         style="fill:none;stroke:#000000;stroke-width:0.82466722;stroke-miterlimit:4;stroke-opacity:1;stroke-dasharray:none;stroke-dashoffset:0"
         sodipodi:type="arc"
         transform="matrix(-2.1483254,0,0,2.1483254,933.73439,-305.25843)" />
    </g>
    <path
       style="fill:none;stroke:#000000;stroke-width:1.95194542;stroke-linecap:butt;stroke-linejoin:miter;stroke-miterlimit:4;stroke-opacity:1;stroke-dasharray:none"
       d="m 101.35189,368.25106 0,227.17004"
       id="path2985-4"
       inkscape:connector-curvature="0" />
    <path
       style="fill:none;stroke:#000000;stroke-width:1.95194542;stroke-linecap:butt;stroke-linejoin:miter;stroke-miterlimit:4;stroke-opacity:1;stroke-dasharray:none"
       d="m 118.37348,368.25106 0,227.17004"
       id="path2985-4-0"
       inkscape:connector-curvature="0" />
    <path
       style="fill:none;stroke:#000000;stroke-width:1.95194542;stroke-linecap:butt;stroke-linejoin:miter;stroke-miterlimit:4;stroke-opacity:1;stroke-dasharray:none"
       d="m 135.39507,368.25106 0,227.17004"
       id="path2985-4-7"
       inkscape:connector-curvature="0" />
    <path
       style="fill:none;stroke:#000000;stroke-width:1.95194542;stroke-linecap:butt;stroke-linejoin:miter;stroke-miterlimit:4;stroke-opacity:1;stroke-dasharray:none"
       d="m 152.41664,368.25106 0,227.17004"
       id="path2985-4-3"
       inkscape:connector-curvature="0" />
    <path
       sodipodi:type="arc"
       style="fill:#ff0000;stroke:#ff0000;stroke-width:1.77165353;stroke-miterlimit:4;stroke-opacity:1;stroke-dasharray:none;stroke-dashoffset:0"
       id="path3909"
       sodipodi:cx="204.64285"
       sodipodi:cy="142.66591"
       sodipodi:rx="3.5714285"
       sodipodi:ry="4.2857141"
       d="m 208.21428,142.66591 c 0,2.36693 -1.59898,4.28571 -3.57143,4.28571 -1.97244,0 -3.57143,-1.91878 -3.57143,-4.28571 0,-2.36694 1.59899,-4.28572 3.57143,-4.28572 1.97245,0 3.57143,1.91878 3.57143,4.28572 z"
       transform="matrix(0.51658509,0,0,0.51658509,100.64,378.30596)" />
    <path
       sodipodi:type="arc"
       style="fill:#ff0000;stroke:#ff0000;stroke-width:1.77165353;stroke-miterlimit:4;stroke-opacity:1;stroke-dasharray:none;stroke-dashoffset:0"
       id="path3909-0"
       sodipodi:cx="204.64285"
       sodipodi:cy="142.66591"
       sodipodi:rx="3.5714285"
       sodipodi:ry="4.2857141"
       d="m 208.21428,142.66591 c 0,2.36693 -1.59898,4.28571 -3.57143,4.28571 -1.97244,0 -3.57143,-1.91878 -3.57143,-4.28571 0,-2.36694 1.59899,-4.28572 3.57143,-4.28572 1.97245,0 3.57143,1.91878 3.57143,4.28572 z"
       transform="matrix(0.51989193,0,0,0.4871461,99.170684,315.95779)" />
    <path
       style="fill:none;stroke:#ff0000;stroke-width:1px;stroke-linecap:butt;stroke-linejoin:miter;stroke-opacity:1"
       d="m 53.780638,484.34659 121.428572,0"
       id="path3973"
       inkscape:connector-curvature="0" />
    <path
       sodipodi:type="star"
       style="fill:#ff0000;fill-opacity:1;stroke:#ff0000;stroke-width:8.34448814;stroke-miterlimit:4;stroke-opacity:1;stroke-dasharray:50.06692913, 16.68897638;stroke-dashoffset:0"
       id="path3975"
       sodipodi:sides="3"
       sodipodi:cx="25.714287"
       sodipodi:cy="122.66591"
       sodipodi:r1="7.1428571"
       sodipodi:r2="3.5714285"
       sodipodi:arg1="0"
       sodipodi:arg2="1.0471976"
       inkscape:flatsided="true"
       inkscape:rounded="0"
       inkscape:randomized="0"
       d="m 32.857144,122.66591 -10.714286,6.18589 0,-12.37179 z"
       transform="matrix(0.51012566,0,0,0.24588074,160.88721,454.3332)"
       inkscape:transform-center-x="-0.91094381" />
    <text
       xml:space="preserve"
       style="font-size:26px;font-style:normal;font-weight:normal;line-height:125%;letter-spacing:0px;word-spacing:0px;fill:#000000;fill-opacity:1;stroke:none;font-family:Sans;-inkscape-font-specification:Sans"
       x="144.45181"
       y="561.2569"
       id="text4113"
       sodipodi:linespacing="125%"
       transform="translate(0,308.2677)"><tspan
         sodipodi:role="line"
         id="tspan4115"
         x="144.45181"
         y="561.2569" /></text>
    <text
       xml:space="preserve"
       style="font-size:26px;font-style:normal;font-weight:normal;line-height:125%;letter-spacing:0px;word-spacing:0px;fill:#000000;fill-opacity:1;stroke:none;font-family:Sans;-inkscape-font-specification:Sans"
       x="133.34013"
       y="549.13501"
       id="text4117"
       sodipodi:linespacing="125%"
       transform="translate(0,308.2677)"><tspan
         sodipodi:role="line"
         id="tspan4119"
         x="133.34013"
         y="549.13501" /></text>
    <text
       xml:space="preserve"
       style="font-size:16.46389198px;font-style:normal;font-weight:normal;line-height:125%;letter-spacing:0px;word-spacing:0px;fill:#000000;fill-opacity:1;stroke:none;font-family:Sans;-inkscape-font-specification:Sans"
       x="76.364876"
       y="628.25562"
       id="text4133"
       sodipodi:linespacing="125%"
       inkscape:transform-center-x="-29.709432"
       inkscape:transform-center-y="13.176213"
       transform="matrix(0.9998477,-0.01745241,0.01745241,0.9998477,0,0)"><tspan
         sodipodi:role="line"
         id="tspan4135"
         x="76.364876"
         y="628.25562">λ</tspan></text>
    <text
       xml:space="preserve"
       style="font-size:23.08451843px;font-style:normal;font-weight:normal;line-height:125%;letter-spacing:0px;word-spacing:0px;fill:#000000;fill-opacity:1;stroke:none;font-family:Sans;-inkscape-font-specification:Sans"
       x="-610.4259"
       y="98.808624"
       id="text3099"
       sodipodi:linespacing="125%"
       transform="matrix(0,-1,1,0,0,0)"><tspan
         sodipodi:role="line"
         id="tspan3101"
         x="-610.4259"
         y="98.808624"
         style="font-size:21.30878639px;font-weight:normal;-inkscape-font-specification:Sans">{</tspan></text>
    <path
       sodipodi:type="arc"
       style="fill:#ff0000;stroke:#ff0000;stroke-width:1.77165353;stroke-miterlimit:4;stroke-opacity:1;stroke-dasharray:none;stroke-dashoffset:0"
       id="path3909-6"
       sodipodi:cx="204.64285"
       sodipodi:cy="142.66591"
       sodipodi:rx="3.5714285"
       sodipodi:ry="4.2857141"
       d="m 208.21428,142.66591 c 0,2.36693 -1.59898,4.28571 -3.57143,4.28571 -1.97244,0 -3.57143,-1.91878 -3.57143,-4.28571 0,-2.36694 1.59899,-4.28572 3.57143,-4.28572 1.97245,0 3.57143,1.91878 3.57143,4.28572 z"
       transform="matrix(0.51658509,0,0,0.51658509,861.4048,577.71377)" />
    <text
       xml:space="preserve"
       style="font-size:26px;font-style:normal;font-weight:normal;line-height:125%;letter-spacing:0px;word-spacing:0px;fill:#000000;fill-opacity:1;stroke:none;font-family:Sans;-inkscape-font-specification:Sans"
       x="172.99359"
       y="393.65344"
       id="text3139"
       sodipodi:linespacing="125%"><tspan
         sodipodi:role="line"
         id="tspan3141"
         x="172.99359"
         y="393.65344"
         style="fill:#ff0000">A</tspan></text>
    <text
       xml:space="preserve"
       style="font-size:26px;font-style:normal;font-weight:normal;line-height:125%;letter-spacing:0px;word-spacing:0px;fill:#000000;fill-opacity:1;stroke:none;font-family:Sans;-inkscape-font-specification:Sans"
       x="170.00545"
       y="460.79697"
       id="text3143"
       sodipodi:linespacing="125%"><tspan
         sodipodi:role="line"
         id="tspan3145"
         x="170.00545"
         y="460.79697"
         style="fill:#ff0000">B</tspan></text>
    <text
       xml:space="preserve"
       style="font-size:26px;font-style:normal;font-weight:normal;line-height:125%;letter-spacing:0px;word-spacing:0px;fill:#000000;fill-opacity:1;stroke:none;font-family:Sans;-inkscape-font-specification:Sans"
       x="976.57306"
       y="673.22363"
       id="text3147"
       sodipodi:linespacing="125%"><tspan
         sodipodi:role="line"
         id="tspan3149"
         x="976.57306"
         y="673.22363"
         style="fill:#ff0000">C</tspan></text>
    <text
       xml:space="preserve"
       style="font-size:26px;font-style:normal;font-weight:normal;line-height:125%;letter-spacing:0px;word-spacing:0px;fill:#000000;fill-opacity:1;stroke:none;font-family:Sans;-inkscape-font-specification:Sans"
       x="1080.6378"
       y="504.95419"
       id="text3215"
       sodipodi:linespacing="125%"
       transform="translate(53.78125,196.96875)"><tspan
         sodipodi:role="line"
         id="tspan3217"
         x="1080.6378"
         y="504.95419" /></text>
    <path
       style="fill:none;stroke:#ff0000;stroke-width:1px;stroke-linecap:butt;stroke-linejoin:miter;stroke-opacity:1"
       d="M 205.20158,385.15589 966.98634,651.31224 205.9821,451.49985 z"
       id="path3219"
       inkscape:connector-curvature="0" />
    <path
       style="fill:none;stroke:#000000;stroke-width:1;stroke-linecap:butt;stroke-linejoin:miter;stroke-miterlimit:4;stroke-opacity:1;stroke-dasharray:8, 4;stroke-dashoffset:0"
       d="m 212.75401,661.88589 746.73822,0"
       id="path3221"
       inkscape:connector-curvature="0"
       sodipodi:nodetypes="cc" />
    <path
       sodipodi:type="star"
       style="fill:#000000;fill-opacity:1;stroke:#000000;stroke-width:8.34448814;stroke-miterlimit:4;stroke-opacity:1;stroke-dasharray:50.06692913, 16.68897638;stroke-dashoffset:0"
       id="path3975-6"
       sodipodi:sides="3"
       sodipodi:cx="25.714287"
       sodipodi:cy="122.66591"
       sodipodi:r1="7.1428571"
       sodipodi:r2="3.5714285"
       sodipodi:arg1="0"
       sodipodi:arg2="1.0471976"
       inkscape:flatsided="true"
       inkscape:rounded="0"
       inkscape:randomized="0"
       d="m 32.857144,122.66591 -10.714286,6.18589 0,-12.37179 z"
       transform="matrix(-0.51012566,0,0,-0.24588074,225.60359,692.17206)"
       inkscape:transform-center-x="0.91094063" />
    <path
       sodipodi:type="star"
       style="fill:#000000;fill-opacity:1;stroke:#000000;stroke-width:8.34448814;stroke-miterlimit:4;stroke-opacity:1;stroke-dasharray:50.06692913, 16.68897638;stroke-dashoffset:0"
       id="path3975-6-5"
       sodipodi:sides="3"
       sodipodi:cx="25.714287"
       sodipodi:cy="122.66591"
       sodipodi:r1="7.1428571"
       sodipodi:r2="3.5714285"
       sodipodi:arg1="0"
       sodipodi:arg2="1.0471976"
       inkscape:flatsided="true"
       inkscape:rounded="0"
       inkscape:randomized="0"
       d="m 32.857144,122.66591 -10.714286,6.18589 0,-12.37179 z"
       transform="matrix(0.51012566,0,0,0.24588074,947.02329,631.45943)"
       inkscape:transform-center-x="-0.91094063" />
    <text
       xml:space="preserve"
       style="font-size:26px;font-style:normal;font-weight:normal;line-height:125%;letter-spacing:0px;word-spacing:0px;fill:#000000;fill-opacity:1;stroke:none;font-family:Sans;-inkscape-font-specification:Sans"
       x="562.64136"
       y="699.71533"
       id="text3259"
       sodipodi:linespacing="125%"><tspan
         sodipodi:role="line"
         id="tspan3261"
         x="562.64136"
         y="699.71533">x</tspan></text>
  </g>
</svg>
